%YAML 1.1
%TAG !u! tag:unity3d.com,2011:
--- !u!29 &1
OcclusionCullingSettings:
  m_ObjectHideFlags: 0
  serializedVersion: 2
  m_OcclusionBakeSettings:
    smallestOccluder: 5
    smallestHole: 0.25
    backfaceThreshold: 100
  m_SceneGUID: 00000000000000000000000000000000
  m_OcclusionCullingData: {fileID: 0}
--- !u!104 &2
RenderSettings:
  m_ObjectHideFlags: 0
  serializedVersion: 9
  m_Fog: 0
  m_FogColor: {r: 0.5, g: 0.5, b: 0.5, a: 1}
  m_FogMode: 3
  m_FogDensity: 0.01
  m_LinearFogStart: 0
  m_LinearFogEnd: 300
  m_AmbientSkyColor: {r: 0.212, g: 0.227, b: 0.259, a: 1}
  m_AmbientEquatorColor: {r: 0.114, g: 0.125, b: 0.133, a: 1}
  m_AmbientGroundColor: {r: 0.047, g: 0.043, b: 0.035, a: 1}
  m_AmbientIntensity: 1
  m_AmbientMode: 3
  m_SubtractiveShadowColor: {r: 0.42, g: 0.478, b: 0.627, a: 1}
  m_SkyboxMaterial: {fileID: 0}
  m_HaloStrength: 0.5
  m_FlareStrength: 1
  m_FlareFadeSpeed: 3
  m_HaloTexture: {fileID: 0}
  m_SpotCookie: {fileID: 10001, guid: 0000000000000000e000000000000000, type: 0}
  m_DefaultReflectionMode: 0
  m_DefaultReflectionResolution: 128
  m_ReflectionBounces: 1
  m_ReflectionIntensity: 1
  m_CustomReflection: {fileID: 0}
  m_Sun: {fileID: 0}
  m_IndirectSpecularColor: {r: 0, g: 0, b: 0, a: 1}
  m_UseRadianceAmbientProbe: 0
--- !u!157 &3
LightmapSettings:
  m_ObjectHideFlags: 0
  serializedVersion: 11
  m_GIWorkflowMode: 0
  m_GISettings:
    serializedVersion: 2
    m_BounceScale: 1
    m_IndirectOutputScale: 1
    m_AlbedoBoost: 1
    m_EnvironmentLightingMode: 0
    m_EnableBakedLightmaps: 1
    m_EnableRealtimeLightmaps: 1
  m_LightmapEditorSettings:
    serializedVersion: 10
    m_Resolution: 2
    m_BakeResolution: 40
    m_AtlasSize: 1024
    m_AO: 0
    m_AOMaxDistance: 1
    m_CompAOExponent: 1
    m_CompAOExponentDirect: 0
    m_Padding: 2
    m_LightmapParameters: {fileID: 0}
    m_LightmapsBakeMode: 1
    m_TextureCompression: 1
    m_FinalGather: 0
    m_FinalGatherFiltering: 1
    m_FinalGatherRayCount: 256
    m_ReflectionCompression: 2
    m_MixedBakeMode: 2
    m_BakeBackend: 1
    m_PVRSampling: 1
    m_PVRDirectSampleCount: 32
    m_PVRSampleCount: 500
    m_PVRBounces: 2
    m_PVRFilterTypeDirect: 0
    m_PVRFilterTypeIndirect: 0
    m_PVRFilterTypeAO: 0
    m_PVRFilteringMode: 1
    m_PVRCulling: 1
    m_PVRFilteringGaussRadiusDirect: 1
    m_PVRFilteringGaussRadiusIndirect: 5
    m_PVRFilteringGaussRadiusAO: 2
    m_PVRFilteringAtrousPositionSigmaDirect: 0.5
    m_PVRFilteringAtrousPositionSigmaIndirect: 2
    m_PVRFilteringAtrousPositionSigmaAO: 1
    m_ShowResolutionOverlay: 1
  m_LightingDataAsset: {fileID: 0}
  m_UseShadowmask: 1
--- !u!196 &4
NavMeshSettings:
  serializedVersion: 2
  m_ObjectHideFlags: 0
  m_BuildSettings:
    serializedVersion: 2
    agentTypeID: 0
    agentRadius: 0.5
    agentHeight: 2
    agentSlope: 45
    agentClimb: 0.4
    ledgeDropHeight: 0
    maxJumpAcrossDistance: 0
    minRegionArea: 2
    manualCellSize: 0
    cellSize: 0.16666667
    manualTileSize: 0
    tileSize: 256
    accuratePlacement: 0
    debug:
      m_Flags: 0
  m_NavMeshData: {fileID: 0}
--- !u!1001 &121712398
PrefabInstance:
  m_ObjectHideFlags: 0
  serializedVersion: 2
  m_Modification:
    m_TransformParent: {fileID: 0}
    m_Modifications:
    - target: {fileID: 100000, guid: 0ce00df3de27cee408215d0f80bfc5a8, type: 3}
      propertyPath: m_Name
      value: bxsd_shuijing01 (5)
      objectReference: {fileID: 0}
    - target: {fileID: 400000, guid: 0ce00df3de27cee408215d0f80bfc5a8, type: 3}
      propertyPath: m_LocalPosition.x
      value: -1.454
      objectReference: {fileID: 0}
    - target: {fileID: 400000, guid: 0ce00df3de27cee408215d0f80bfc5a8, type: 3}
      propertyPath: m_LocalPosition.y
      value: 1.51
      objectReference: {fileID: 0}
    - target: {fileID: 400000, guid: 0ce00df3de27cee408215d0f80bfc5a8, type: 3}
      propertyPath: m_LocalPosition.z
      value: 0
      objectReference: {fileID: 0}
    - target: {fileID: 400000, guid: 0ce00df3de27cee408215d0f80bfc5a8, type: 3}
      propertyPath: m_LocalRotation.x
      value: -0
      objectReference: {fileID: 0}
    - target: {fileID: 400000, guid: 0ce00df3de27cee408215d0f80bfc5a8, type: 3}
      propertyPath: m_LocalRotation.y
      value: 0.81418514
      objectReference: {fileID: 0}
    - target: {fileID: 400000, guid: 0ce00df3de27cee408215d0f80bfc5a8, type: 3}
      propertyPath: m_LocalRotation.z
      value: -0
      objectReference: {fileID: 0}
    - target: {fileID: 400000, guid: 0ce00df3de27cee408215d0f80bfc5a8, type: 3}
      propertyPath: m_LocalRotation.w
      value: -0.58060545
      objectReference: {fileID: 0}
    - target: {fileID: 400000, guid: 0ce00df3de27cee408215d0f80bfc5a8, type: 3}
      propertyPath: m_RootOrder
      value: 4
      objectReference: {fileID: 0}
    - target: {fileID: 400000, guid: 0ce00df3de27cee408215d0f80bfc5a8, type: 3}
      propertyPath: m_LocalEulerAnglesHint.x
      value: 0
      objectReference: {fileID: 0}
    - target: {fileID: 400000, guid: 0ce00df3de27cee408215d0f80bfc5a8, type: 3}
      propertyPath: m_LocalEulerAnglesHint.y
      value: -1909.014
      objectReference: {fileID: 0}
    - target: {fileID: 400000, guid: 0ce00df3de27cee408215d0f80bfc5a8, type: 3}
      propertyPath: m_LocalEulerAnglesHint.z
      value: 0
      objectReference: {fileID: 0}
    - target: {fileID: 400000, guid: 0ce00df3de27cee408215d0f80bfc5a8, type: 3}
      propertyPath: m_LocalScale.z
      value: 1
      objectReference: {fileID: 0}
    - target: {fileID: 400000, guid: 0ce00df3de27cee408215d0f80bfc5a8, type: 3}
      propertyPath: m_LocalScale.x
      value: 1
      objectReference: {fileID: 0}
    - target: {fileID: 2300000, guid: 0ce00df3de27cee408215d0f80bfc5a8, type: 3}
      propertyPath: m_Materials.Array.data[0]
      value: 
      objectReference: {fileID: 2100000, guid: fbcad4e1214e613478469ca0d9e37560, type: 2}
    m_RemovedComponents: []
  m_SourcePrefab: {fileID: 100100000, guid: 0ce00df3de27cee408215d0f80bfc5a8, type: 3}
--- !u!1001 &130533739
PrefabInstance:
  m_ObjectHideFlags: 0
  serializedVersion: 2
  m_Modification:
    m_TransformParent: {fileID: 0}
    m_Modifications:
    - target: {fileID: 100000, guid: 0ce00df3de27cee408215d0f80bfc5a8, type: 3}
      propertyPath: m_Name
      value: bxsd_shuijing01 (9)
      objectReference: {fileID: 0}
    - target: {fileID: 400000, guid: 0ce00df3de27cee408215d0f80bfc5a8, type: 3}
      propertyPath: m_LocalPosition.x
      value: 1.22
      objectReference: {fileID: 0}
    - target: {fileID: 400000, guid: 0ce00df3de27cee408215d0f80bfc5a8, type: 3}
      propertyPath: m_LocalPosition.y
      value: 1.51
      objectReference: {fileID: 0}
    - target: {fileID: 400000, guid: 0ce00df3de27cee408215d0f80bfc5a8, type: 3}
      propertyPath: m_LocalPosition.z
      value: 0
      objectReference: {fileID: 0}
    - target: {fileID: 400000, guid: 0ce00df3de27cee408215d0f80bfc5a8, type: 3}
      propertyPath: m_LocalRotation.x
      value: -0
      objectReference: {fileID: 0}
    - target: {fileID: 400000, guid: 0ce00df3de27cee408215d0f80bfc5a8, type: 3}
      propertyPath: m_LocalRotation.y
      value: 0.81418514
      objectReference: {fileID: 0}
    - target: {fileID: 400000, guid: 0ce00df3de27cee408215d0f80bfc5a8, type: 3}
      propertyPath: m_LocalRotation.z
      value: -0
      objectReference: {fileID: 0}
    - target: {fileID: 400000, guid: 0ce00df3de27cee408215d0f80bfc5a8, type: 3}
      propertyPath: m_LocalRotation.w
      value: -0.58060545
      objectReference: {fileID: 0}
    - target: {fileID: 400000, guid: 0ce00df3de27cee408215d0f80bfc5a8, type: 3}
      propertyPath: m_RootOrder
      value: 8
      objectReference: {fileID: 0}
    - target: {fileID: 400000, guid: 0ce00df3de27cee408215d0f80bfc5a8, type: 3}
      propertyPath: m_LocalEulerAnglesHint.x
      value: 0
      objectReference: {fileID: 0}
    - target: {fileID: 400000, guid: 0ce00df3de27cee408215d0f80bfc5a8, type: 3}
      propertyPath: m_LocalEulerAnglesHint.y
      value: -1909.014
      objectReference: {fileID: 0}
    - target: {fileID: 400000, guid: 0ce00df3de27cee408215d0f80bfc5a8, type: 3}
      propertyPath: m_LocalEulerAnglesHint.z
      value: 0
      objectReference: {fileID: 0}
    - target: {fileID: 400000, guid: 0ce00df3de27cee408215d0f80bfc5a8, type: 3}
      propertyPath: m_LocalScale.z
      value: 1
      objectReference: {fileID: 0}
    - target: {fileID: 400000, guid: 0ce00df3de27cee408215d0f80bfc5a8, type: 3}
      propertyPath: m_LocalScale.x
      value: 1
      objectReference: {fileID: 0}
    - target: {fileID: 2300000, guid: 0ce00df3de27cee408215d0f80bfc5a8, type: 3}
      propertyPath: m_Materials.Array.data[0]
      value: 
      objectReference: {fileID: 2100000, guid: ad10c6749ecfcba449798cab75132566, type: 2}
    m_RemovedComponents: []
  m_SourcePrefab: {fileID: 100100000, guid: 0ce00df3de27cee408215d0f80bfc5a8, type: 3}
--- !u!1001 &428607718
PrefabInstance:
  m_ObjectHideFlags: 0
  serializedVersion: 2
  m_Modification:
    m_TransformParent: {fileID: 0}
    m_Modifications:
    - target: {fileID: 100000, guid: 0ce00df3de27cee408215d0f80bfc5a8, type: 3}
      propertyPath: m_Name
      value: bxsd_shuijing01 (4)
      objectReference: {fileID: 0}
    - target: {fileID: 400000, guid: 0ce00df3de27cee408215d0f80bfc5a8, type: 3}
      propertyPath: m_LocalPosition.x
      value: -1.46
      objectReference: {fileID: 0}
    - target: {fileID: 400000, guid: 0ce00df3de27cee408215d0f80bfc5a8, type: 3}
      propertyPath: m_LocalPosition.y
      value: -1.102
      objectReference: {fileID: 0}
    - target: {fileID: 400000, guid: 0ce00df3de27cee408215d0f80bfc5a8, type: 3}
      propertyPath: m_LocalPosition.z
      value: 0.022
      objectReference: {fileID: 0}
    - target: {fileID: 400000, guid: 0ce00df3de27cee408215d0f80bfc5a8, type: 3}
      propertyPath: m_LocalRotation.x
      value: -0
      objectReference: {fileID: 0}
    - target: {fileID: 400000, guid: 0ce00df3de27cee408215d0f80bfc5a8, type: 3}
      propertyPath: m_LocalRotation.y
      value: 0.05741655
      objectReference: {fileID: 0}
    - target: {fileID: 400000, guid: 0ce00df3de27cee408215d0f80bfc5a8, type: 3}
      propertyPath: m_LocalRotation.z
      value: -0
      objectReference: {fileID: 0}
    - target: {fileID: 400000, guid: 0ce00df3de27cee408215d0f80bfc5a8, type: 3}
      propertyPath: m_LocalRotation.w
      value: 0.9983503
      objectReference: {fileID: 0}
    - target: {fileID: 400000, guid: 0ce00df3de27cee408215d0f80bfc5a8, type: 3}
      propertyPath: m_RootOrder
      value: 3
      objectReference: {fileID: 0}
    - target: {fileID: 400000, guid: 0ce00df3de27cee408215d0f80bfc5a8, type: 3}
      propertyPath: m_LocalEulerAnglesHint.x
      value: 0
      objectReference: {fileID: 0}
    - target: {fileID: 400000, guid: 0ce00df3de27cee408215d0f80bfc5a8, type: 3}
      propertyPath: m_LocalEulerAnglesHint.y
      value: -2153.417
      objectReference: {fileID: 0}
    - target: {fileID: 400000, guid: 0ce00df3de27cee408215d0f80bfc5a8, type: 3}
      propertyPath: m_LocalEulerAnglesHint.z
      value: 0
      objectReference: {fileID: 0}
    - target: {fileID: 400000, guid: 0ce00df3de27cee408215d0f80bfc5a8, type: 3}
      propertyPath: m_LocalScale.z
      value: 1.7121278
      objectReference: {fileID: 0}
    - target: {fileID: 400000, guid: 0ce00df3de27cee408215d0f80bfc5a8, type: 3}
      propertyPath: m_LocalScale.x
      value: 1.7121278
      objectReference: {fileID: 0}
    - target: {fileID: 400000, guid: 0ce00df3de27cee408215d0f80bfc5a8, type: 3}
      propertyPath: m_LocalScale.y
      value: 0.89317834
      objectReference: {fileID: 0}
    - target: {fileID: 2300000, guid: 0ce00df3de27cee408215d0f80bfc5a8, type: 3}
      propertyPath: m_Materials.Array.data[0]
      value: 
      objectReference: {fileID: 2100000, guid: fbcad4e1214e613478469ca0d9e37560, type: 2}
    m_RemovedComponents: []
  m_SourcePrefab: {fileID: 100100000, guid: 0ce00df3de27cee408215d0f80bfc5a8, type: 3}
--- !u!1001 &782155492
PrefabInstance:
  m_ObjectHideFlags: 0
  serializedVersion: 2
  m_Modification:
    m_TransformParent: {fileID: 0}
    m_Modifications:
    - target: {fileID: 100000, guid: 0ce00df3de27cee408215d0f80bfc5a8, type: 3}
      propertyPath: m_Name
      value: bxsd_shuijing01 (8)
      objectReference: {fileID: 0}
    - target: {fileID: 400000, guid: 0ce00df3de27cee408215d0f80bfc5a8, type: 3}
      propertyPath: m_LocalPosition.x
      value: 1.2140001
      objectReference: {fileID: 0}
    - target: {fileID: 400000, guid: 0ce00df3de27cee408215d0f80bfc5a8, type: 3}
      propertyPath: m_LocalPosition.y
      value: -1.102
      objectReference: {fileID: 0}
    - target: {fileID: 400000, guid: 0ce00df3de27cee408215d0f80bfc5a8, type: 3}
      propertyPath: m_LocalPosition.z
      value: 0.022
      objectReference: {fileID: 0}
    - target: {fileID: 400000, guid: 0ce00df3de27cee408215d0f80bfc5a8, type: 3}
      propertyPath: m_LocalRotation.x
      value: -0
      objectReference: {fileID: 0}
    - target: {fileID: 400000, guid: 0ce00df3de27cee408215d0f80bfc5a8, type: 3}
      propertyPath: m_LocalRotation.y
      value: 0.05741655
      objectReference: {fileID: 0}
    - target: {fileID: 400000, guid: 0ce00df3de27cee408215d0f80bfc5a8, type: 3}
      propertyPath: m_LocalRotation.z
      value: -0
      objectReference: {fileID: 0}
    - target: {fileID: 400000, guid: 0ce00df3de27cee408215d0f80bfc5a8, type: 3}
      propertyPath: m_LocalRotation.w
      value: 0.9983503
      objectReference: {fileID: 0}
    - target: {fileID: 400000, guid: 0ce00df3de27cee408215d0f80bfc5a8, type: 3}
      propertyPath: m_RootOrder
      value: 7
      objectReference: {fileID: 0}
    - target: {fileID: 400000, guid: 0ce00df3de27cee408215d0f80bfc5a8, type: 3}
      propertyPath: m_LocalEulerAnglesHint.x
      value: 0
      objectReference: {fileID: 0}
    - target: {fileID: 400000, guid: 0ce00df3de27cee408215d0f80bfc5a8, type: 3}
      propertyPath: m_LocalEulerAnglesHint.y
      value: -2153.417
      objectReference: {fileID: 0}
    - target: {fileID: 400000, guid: 0ce00df3de27cee408215d0f80bfc5a8, type: 3}
      propertyPath: m_LocalEulerAnglesHint.z
      value: 0
      objectReference: {fileID: 0}
    - target: {fileID: 400000, guid: 0ce00df3de27cee408215d0f80bfc5a8, type: 3}
      propertyPath: m_LocalScale.z
      value: 1.7121278
      objectReference: {fileID: 0}
    - target: {fileID: 400000, guid: 0ce00df3de27cee408215d0f80bfc5a8, type: 3}
      propertyPath: m_LocalScale.x
      value: 1.7121278
      objectReference: {fileID: 0}
    - target: {fileID: 400000, guid: 0ce00df3de27cee408215d0f80bfc5a8, type: 3}
      propertyPath: m_LocalScale.y
      value: 0.89317834
      objectReference: {fileID: 0}
    - target: {fileID: 2300000, guid: 0ce00df3de27cee408215d0f80bfc5a8, type: 3}
      propertyPath: m_Materials.Array.data[0]
      value: 
      objectReference: {fileID: 2100000, guid: ad10c6749ecfcba449798cab75132566, type: 2}
    m_RemovedComponents: []
  m_SourcePrefab: {fileID: 100100000, guid: 0ce00df3de27cee408215d0f80bfc5a8, type: 3}
--- !u!1 &844575243 stripped
GameObject:
  m_CorrespondingSourceObject: {fileID: 100000, guid: 0ce00df3de27cee408215d0f80bfc5a8,
    type: 3}
  m_PrefabInstance: {fileID: 782155492}
  m_PrefabAsset: {fileID: 0}
--- !u!114 &844575244
MonoBehaviour:
  m_ObjectHideFlags: 0
  m_CorrespondingSourceObject: {fileID: 0}
  m_PrefabInstance: {fileID: 0}
  m_PrefabAsset: {fileID: 0}
  m_GameObject: {fileID: 844575243}
  m_Enabled: 1
  m_EditorHideFlags: 0
  m_Script: {fileID: 11500000, guid: 56b95f1b9dd584741bc6172529cc3e9b, type: 3}
  m_Name: 
  m_EditorClassIdentifier: 
--- !u!1 &954708176
GameObject:
  m_ObjectHideFlags: 0
  m_CorrespondingSourceObject: {fileID: 0}
  m_PrefabInstance: {fileID: 0}
  m_PrefabAsset: {fileID: 0}
  serializedVersion: 6
  m_Component:
  - component: {fileID: 954708180}
  - component: {fileID: 954708179}
  - component: {fileID: 954708178}
  - component: {fileID: 954708177}
  m_Layer: 0
  m_Name: Plane
  m_TagString: Untagged
  m_Icon: {fileID: 0}
  m_NavMeshLayer: 0
  m_StaticEditorFlags: 0
  m_IsActive: 1
--- !u!64 &954708177
MeshCollider:
  m_ObjectHideFlags: 0
  m_CorrespondingSourceObject: {fileID: 0}
  m_PrefabInstance: {fileID: 0}
  m_PrefabAsset: {fileID: 0}
  m_GameObject: {fileID: 954708176}
  m_Material: {fileID: 0}
  m_IsTrigger: 0
  m_Enabled: 1
  serializedVersion: 3
  m_Convex: 0
  m_CookingOptions: 14
  m_Mesh: {fileID: 10209, guid: 0000000000000000e000000000000000, type: 0}
--- !u!23 &954708178
MeshRenderer:
  m_ObjectHideFlags: 0
  m_CorrespondingSourceObject: {fileID: 0}
  m_PrefabInstance: {fileID: 0}
  m_PrefabAsset: {fileID: 0}
  m_GameObject: {fileID: 954708176}
  m_Enabled: 1
  m_CastShadows: 1
  m_ReceiveShadows: 1
  m_DynamicOccludee: 1
  m_MotionVectors: 1
  m_LightProbeUsage: 1
  m_ReflectionProbeUsage: 1
  m_RenderingLayerMask: 1
  m_RendererPriority: 0
  m_Materials:
  - {fileID: 2100000, guid: c9e0ce05fbf15164cbaf133ad7b8ed70, type: 2}
  m_StaticBatchInfo:
    firstSubMesh: 0
    subMeshCount: 0
  m_StaticBatchRoot: {fileID: 0}
  m_ProbeAnchor: {fileID: 0}
  m_LightProbeVolumeOverride: {fileID: 0}
  m_ScaleInLightmap: 1
  m_PreserveUVs: 0
  m_IgnoreNormalsForChartDetection: 0
  m_ImportantGI: 0
  m_StitchLightmapSeams: 0
  m_SelectedEditorRenderState: 3
  m_MinimumChartSize: 4
  m_AutoUVMaxDistance: 0.5
  m_AutoUVMaxAngle: 89
  m_LightmapParameters: {fileID: 0}
  m_SortingLayerID: 0
  m_SortingLayer: 0
  m_SortingOrder: 0
--- !u!33 &954708179
MeshFilter:
  m_ObjectHideFlags: 0
  m_CorrespondingSourceObject: {fileID: 0}
  m_PrefabInstance: {fileID: 0}
  m_PrefabAsset: {fileID: 0}
  m_GameObject: {fileID: 954708176}
  m_Mesh: {fileID: 10209, guid: 0000000000000000e000000000000000, type: 0}
--- !u!4 &954708180
Transform:
  m_ObjectHideFlags: 0
  m_CorrespondingSourceObject: {fileID: 0}
  m_PrefabInstance: {fileID: 0}
  m_PrefabAsset: {fileID: 0}
  m_GameObject: {fileID: 954708176}
  m_LocalRotation: {x: -0.42601997, y: -0, z: -0, w: 0.9047138}
  m_LocalPosition: {x: 0.28, y: -0.52, z: 3.82}
  m_LocalScale: {x: 2.5742152, y: 1.3095, z: 2.5304778}
  m_Children: []
  m_Father: {fileID: 0}
  m_RootOrder: 2
  m_LocalEulerAnglesHint: {x: -50.430004, y: 0, z: 0}
--- !u!1 &1072665264 stripped
GameObject:
  m_CorrespondingSourceObject: {fileID: 100000, guid: 0ce00df3de27cee408215d0f80bfc5a8,
    type: 3}
  m_PrefabInstance: {fileID: 428607718}
  m_PrefabAsset: {fileID: 0}
--- !u!114 &1072665265
MonoBehaviour:
  m_ObjectHideFlags: 0
  m_CorrespondingSourceObject: {fileID: 0}
  m_PrefabInstance: {fileID: 0}
  m_PrefabAsset: {fileID: 0}
  m_GameObject: {fileID: 1072665264}
  m_Enabled: 1
  m_EditorHideFlags: 0
  m_Script: {fileID: 11500000, guid: 56b95f1b9dd584741bc6172529cc3e9b, type: 3}
  m_Name: 
  m_EditorClassIdentifier: 
--- !u!1 &1370489266 stripped
GameObject:
  m_CorrespondingSourceObject: {fileID: 100000, guid: 0ce00df3de27cee408215d0f80bfc5a8,
    type: 3}
  m_PrefabInstance: {fileID: 121712398}
  m_PrefabAsset: {fileID: 0}
--- !u!114 &1370489267
MonoBehaviour:
  m_ObjectHideFlags: 0
  m_CorrespondingSourceObject: {fileID: 0}
  m_PrefabInstance: {fileID: 0}
  m_PrefabAsset: {fileID: 0}
  m_GameObject: {fileID: 1370489266}
  m_Enabled: 1
  m_EditorHideFlags: 0
  m_Script: {fileID: 11500000, guid: 56b95f1b9dd584741bc6172529cc3e9b, type: 3}
  m_Name: 
  m_EditorClassIdentifier: 
--- !u!1 &1398049145
GameObject:
  m_ObjectHideFlags: 0
  m_CorrespondingSourceObject: {fileID: 0}
  m_PrefabInstance: {fileID: 0}
  m_PrefabAsset: {fileID: 0}
  serializedVersion: 6
  m_Component:
  - component: {fileID: 1398049148}
  - component: {fileID: 1398049147}
  - component: {fileID: 1398049146}
  - component: {fileID: 1398049149}
  - component: {fileID: 1398049150}
  m_Layer: 0
  m_Name: Main Camera
  m_TagString: MainCamera
  m_Icon: {fileID: 0}
  m_NavMeshLayer: 0
  m_StaticEditorFlags: 0
  m_IsActive: 1
--- !u!81 &1398049146
AudioListener:
  m_ObjectHideFlags: 0
  m_CorrespondingSourceObject: {fileID: 0}
  m_PrefabInstance: {fileID: 0}
  m_PrefabAsset: {fileID: 0}
  m_GameObject: {fileID: 1398049145}
  m_Enabled: 1
--- !u!20 &1398049147
Camera:
  m_ObjectHideFlags: 0
  m_CorrespondingSourceObject: {fileID: 0}
  m_PrefabInstance: {fileID: 0}
  m_PrefabAsset: {fileID: 0}
  m_GameObject: {fileID: 1398049145}
  m_Enabled: 1
  serializedVersion: 2
  m_ClearFlags: 1
  m_BackGroundColor: {r: 0, g: 0, b: 0, a: 0}
  m_projectionMatrixMode: 1
  m_SensorSize: {x: 36, y: 24}
  m_LensShift: {x: 0, y: 0}
  m_GateFitMode: 2
  m_FocalLength: 50
  m_NormalizedViewPortRect:
    serializedVersion: 2
    x: 0
    y: 0
    width: 1
    height: 1
  near clip plane: 0.3
  far clip plane: 1000
  field of view: 40
  orthographic: 0
  orthographic size: 5
  m_Depth: -1
  m_CullingMask:
    serializedVersion: 2
    m_Bits: 4294967295
  m_RenderingPath: -1
  m_TargetTexture: {fileID: 0}
  m_TargetDisplay: 0
  m_TargetEye: 3
  m_HDR: 1
  m_AllowMSAA: 1
  m_AllowDynamicResolution: 0
  m_ForceIntoRT: 0
  m_OcclusionCulling: 1
  m_StereoConvergence: 10
  m_StereoSeparation: 0.022
--- !u!4 &1398049148
Transform:
  m_ObjectHideFlags: 0
  m_CorrespondingSourceObject: {fileID: 0}
  m_PrefabInstance: {fileID: 0}
  m_PrefabAsset: {fileID: 0}
  m_GameObject: {fileID: 1398049145}
  m_LocalRotation: {x: 0.14494969, y: -0, z: -0, w: 0.9894391}
  m_LocalPosition: {x: -0.11, y: 3.64, z: -8.95}
  m_LocalScale: {x: 1, y: 1, z: 1}
  m_Children: []
  m_Father: {fileID: 0}
  m_RootOrder: 0
  m_LocalEulerAnglesHint: {x: 16.669, y: 0, z: 0}
--- !u!114 &1398049149
MonoBehaviour:
  m_ObjectHideFlags: 0
  m_CorrespondingSourceObject: {fileID: 0}
  m_PrefabInstance: {fileID: 0}
  m_PrefabAsset: {fileID: 0}
  m_GameObject: {fileID: 1398049145}
  m_Enabled: 1
  m_EditorHideFlags: 0
  m_Script: {fileID: 11500000, guid: ed5cd52c0e781c94c8dcc23fc5c1cb69, type: 3}
  m_Name: 
  m_EditorClassIdentifier: 
--- !u!114 &1398049150
MonoBehaviour:
  m_ObjectHideFlags: 0
  m_CorrespondingSourceObject: {fileID: 0}
  m_PrefabInstance: {fileID: 0}
  m_PrefabAsset: {fileID: 0}
  m_GameObject: {fileID: 1398049145}
  m_Enabled: 1
  m_EditorHideFlags: 0
  m_Script: {fileID: 11500000, guid: 64c0d33c0c54bee4da0c0bfc988126aa, type: 3}
  m_Name: 
  m_EditorClassIdentifier: 
--- !u!1 &1419819524 stripped
GameObject:
  m_CorrespondingSourceObject: {fileID: 100000, guid: 0ce00df3de27cee408215d0f80bfc5a8,
    type: 3}
  m_PrefabInstance: {fileID: 1874511945}
  m_PrefabAsset: {fileID: 0}
--- !u!114 &1419819525
MonoBehaviour:
  m_ObjectHideFlags: 0
  m_CorrespondingSourceObject: {fileID: 0}
  m_PrefabInstance: {fileID: 0}
  m_PrefabAsset: {fileID: 0}
  m_GameObject: {fileID: 1419819524}
  m_Enabled: 1
  m_EditorHideFlags: 0
  m_Script: {fileID: 11500000, guid: 56b95f1b9dd584741bc6172529cc3e9b, type: 3}
  m_Name: 
  m_EditorClassIdentifier: 
--- !u!1 &1655765629
GameObject:
  m_ObjectHideFlags: 0
  m_CorrespondingSourceObject: {fileID: 0}
  m_PrefabInstance: {fileID: 0}
  m_PrefabAsset: {fileID: 0}
  serializedVersion: 6
  m_Component:
  - component: {fileID: 1655765630}
  - component: {fileID: 1655765631}
  m_Layer: 0
  m_Name: Directional Light
  m_TagString: Untagged
  m_Icon: {fileID: 0}
  m_NavMeshLayer: 0
  m_StaticEditorFlags: 0
  m_IsActive: 1
--- !u!4 &1655765630
Transform:
  m_ObjectHideFlags: 0
  m_CorrespondingSourceObject: {fileID: 0}
  m_PrefabInstance: {fileID: 0}
  m_PrefabAsset: {fileID: 0}
  m_GameObject: {fileID: 1655765629}
  m_LocalRotation: {x: 0.2710737, y: -0.28056306, z: 0.12608287, w: 0.9120891}
  m_LocalPosition: {x: 0, y: 1, z: -10}
  m_LocalScale: {x: 1, y: 1, z: 1}
  m_Children: []
  m_Father: {fileID: 0}
  m_RootOrder: 1
  m_LocalEulerAnglesHint: {x: 34.419003, y: -32.517002, z: 5.418}
--- !u!108 &1655765631
Light:
  m_ObjectHideFlags: 0
  m_CorrespondingSourceObject: {fileID: 0}
  m_PrefabInstance: {fileID: 0}
  m_PrefabAsset: {fileID: 0}
  m_GameObject: {fileID: 1655765629}
  m_Enabled: 1
  serializedVersion: 8
  m_Type: 1
  m_Color: {r: 1, g: 0.95686275, b: 0.8392157, a: 1}
  m_Intensity: 1
  m_Range: 10
  m_SpotAngle: 30
  m_CookieSize: 10
  m_Shadows:
    m_Type: 2
    m_Resolution: -1
    m_CustomResolution: -1
    m_Strength: 1
    m_Bias: 0.05
    m_NormalBias: 0.4
    m_NearPlane: 0.2
  m_Cookie: {fileID: 0}
  m_DrawHalo: 0
  m_Flare: {fileID: 0}
  m_RenderMode: 0
  m_CullingMask:
    serializedVersion: 2
    m_Bits: 4294967295
  m_Lightmapping: 4
  m_LightShadowCasterMode: 0
  m_AreaSize: {x: 1, y: 1}
  m_BounceIntensity: 1
  m_ColorTemperature: 6570
  m_UseColorTemperature: 0
  m_ShadowRadius: 0
  m_ShadowAngle: 0
--- !u!1 &1721630768 stripped
GameObject:
  m_CorrespondingSourceObject: {fileID: 100000, guid: 0ce00df3de27cee408215d0f80bfc5a8,
    type: 3}
  m_PrefabInstance: {fileID: 1854744094}
  m_PrefabAsset: {fileID: 0}
--- !u!114 &1721630769
MonoBehaviour:
  m_ObjectHideFlags: 0
  m_CorrespondingSourceObject: {fileID: 0}
  m_PrefabInstance: {fileID: 0}
  m_PrefabAsset: {fileID: 0}
  m_GameObject: {fileID: 1721630768}
  m_Enabled: 1
  m_EditorHideFlags: 0
  m_Script: {fileID: 11500000, guid: 56b95f1b9dd584741bc6172529cc3e9b, type: 3}
  m_Name: 
  m_EditorClassIdentifier: 
--- !u!1001 &1854744094
PrefabInstance:
  m_ObjectHideFlags: 0
  serializedVersion: 2
  m_Modification:
    m_TransformParent: {fileID: 0}
    m_Modifications:
    - target: {fileID: 100000, guid: 0ce00df3de27cee408215d0f80bfc5a8, type: 3}
      propertyPath: m_Name
      value: bxsd_shuijing01 (7)
      objectReference: {fileID: 0}
    - target: {fileID: 400000, guid: 0ce00df3de27cee408215d0f80bfc5a8, type: 3}
      propertyPath: m_LocalPosition.x
      value: -0.15400001
      objectReference: {fileID: 0}
    - target: {fileID: 400000, guid: 0ce00df3de27cee408215d0f80bfc5a8, type: 3}
      propertyPath: m_LocalPosition.y
      value: 1.51
      objectReference: {fileID: 0}
    - target: {fileID: 400000, guid: 0ce00df3de27cee408215d0f80bfc5a8, type: 3}
      propertyPath: m_LocalPosition.z
      value: 0
      objectReference: {fileID: 0}
    - target: {fileID: 400000, guid: 0ce00df3de27cee408215d0f80bfc5a8, type: 3}
      propertyPath: m_LocalRotation.x
      value: -0
      objectReference: {fileID: 0}
    - target: {fileID: 400000, guid: 0ce00df3de27cee408215d0f80bfc5a8, type: 3}
      propertyPath: m_LocalRotation.y
      value: 0.81418514
      objectReference: {fileID: 0}
    - target: {fileID: 400000, guid: 0ce00df3de27cee408215d0f80bfc5a8, type: 3}
      propertyPath: m_LocalRotation.z
      value: -0
      objectReference: {fileID: 0}
    - target: {fileID: 400000, guid: 0ce00df3de27cee408215d0f80bfc5a8, type: 3}
      propertyPath: m_LocalRotation.w
      value: -0.58060545
      objectReference: {fileID: 0}
    - target: {fileID: 400000, guid: 0ce00df3de27cee408215d0f80bfc5a8, type: 3}
      propertyPath: m_RootOrder
      value: 6
      objectReference: {fileID: 0}
    - target: {fileID: 400000, guid: 0ce00df3de27cee408215d0f80bfc5a8, type: 3}
      propertyPath: m_LocalEulerAnglesHint.x
      value: 0
      objectReference: {fileID: 0}
    - target: {fileID: 400000, guid: 0ce00df3de27cee408215d0f80bfc5a8, type: 3}
      propertyPath: m_LocalEulerAnglesHint.y
      value: -1909.014
      objectReference: {fileID: 0}
    - target: {fileID: 400000, guid: 0ce00df3de27cee408215d0f80bfc5a8, type: 3}
      propertyPath: m_LocalEulerAnglesHint.z
      value: 0
      objectReference: {fileID: 0}
    - target: {fileID: 400000, guid: 0ce00df3de27cee408215d0f80bfc5a8, type: 3}
      propertyPath: m_LocalScale.z
      value: 1
      objectReference: {fileID: 0}
    - target: {fileID: 400000, guid: 0ce00df3de27cee408215d0f80bfc5a8, type: 3}
      propertyPath: m_LocalScale.x
      value: 1
      objectReference: {fileID: 0}
    - target: {fileID: 2300000, guid: 0ce00df3de27cee408215d0f80bfc5a8, type: 3}
      propertyPath: m_Materials.Array.data[0]
      value: 
      objectReference: {fileID: 2100000, guid: 9395ec50d0bf1654281322ce92380132, type: 2}
    m_RemovedComponents: []
  m_SourcePrefab: {fileID: 100100000, guid: 0ce00df3de27cee408215d0f80bfc5a8, type: 3}
--- !u!1001 &1874511945
PrefabInstance:
  m_ObjectHideFlags: 0
  serializedVersion: 2
  m_Modification:
    m_TransformParent: {fileID: 0}
    m_Modifications:
    - target: {fileID: 100000, guid: 0ce00df3de27cee408215d0f80bfc5a8, type: 3}
      propertyPath: m_Name
      value: bxsd_shuijing01 (6)
      objectReference: {fileID: 0}
    - target: {fileID: 400000, guid: 0ce00df3de27cee408215d0f80bfc5a8, type: 3}
      propertyPath: m_LocalPosition.x
      value: -0.16
      objectReference: {fileID: 0}
    - target: {fileID: 400000, guid: 0ce00df3de27cee408215d0f80bfc5a8, type: 3}
      propertyPath: m_LocalPosition.y
      value: -1.102
      objectReference: {fileID: 0}
    - target: {fileID: 400000, guid: 0ce00df3de27cee408215d0f80bfc5a8, type: 3}
      propertyPath: m_LocalPosition.z
      value: 0.022
      objectReference: {fileID: 0}
    - target: {fileID: 400000, guid: 0ce00df3de27cee408215d0f80bfc5a8, type: 3}
      propertyPath: m_LocalRotation.x
      value: -0
      objectReference: {fileID: 0}
    - target: {fileID: 400000, guid: 0ce00df3de27cee408215d0f80bfc5a8, type: 3}
      propertyPath: m_LocalRotation.y
      value: 0.05741655
      objectReference: {fileID: 0}
    - target: {fileID: 400000, guid: 0ce00df3de27cee408215d0f80bfc5a8, type: 3}
      propertyPath: m_LocalRotation.z
      value: -0
      objectReference: {fileID: 0}
    - target: {fileID: 400000, guid: 0ce00df3de27cee408215d0f80bfc5a8, type: 3}
      propertyPath: m_LocalRotation.w
      value: 0.9983503
      objectReference: {fileID: 0}
    - target: {fileID: 400000, guid: 0ce00df3de27cee408215d0f80bfc5a8, type: 3}
      propertyPath: m_RootOrder
      value: 5
      objectReference: {fileID: 0}
    - target: {fileID: 400000, guid: 0ce00df3de27cee408215d0f80bfc5a8, type: 3}
      propertyPath: m_LocalEulerAnglesHint.x
      value: 0
      objectReference: {fileID: 0}
    - target: {fileID: 400000, guid: 0ce00df3de27cee408215d0f80bfc5a8, type: 3}
      propertyPath: m_LocalEulerAnglesHint.y
      value: -2153.417
      objectReference: {fileID: 0}
    - target: {fileID: 400000, guid: 0ce00df3de27cee408215d0f80bfc5a8, type: 3}
      propertyPath: m_LocalEulerAnglesHint.z
      value: 0
      objectReference: {fileID: 0}
    - target: {fileID: 400000, guid: 0ce00df3de27cee408215d0f80bfc5a8, type: 3}
      propertyPath: m_LocalScale.z
      value: 1.7121278
      objectReference: {fileID: 0}
    - target: {fileID: 400000, guid: 0ce00df3de27cee408215d0f80bfc5a8, type: 3}
      propertyPath: m_LocalScale.x
      value: 1.7121278
      objectReference: {fileID: 0}
    - target: {fileID: 400000, guid: 0ce00df3de27cee408215d0f80bfc5a8, type: 3}
      propertyPath: m_LocalScale.y
      value: 0.89317834
      objectReference: {fileID: 0}
    - target: {fileID: 2300000, guid: 0ce00df3de27cee408215d0f80bfc5a8, type: 3}
      propertyPath: m_Materials.Array.data[0]
      value: 
      objectReference: {fileID: 2100000, guid: 9395ec50d0bf1654281322ce92380132, type: 2}
    m_RemovedComponents: []
  m_SourcePrefab: {fileID: 100100000, guid: 0ce00df3de27cee408215d0f80bfc5a8, type: 3}
--- !u!1 &2124851455 stripped
GameObject:
  m_CorrespondingSourceObject: {fileID: 100000, guid: 0ce00df3de27cee408215d0f80bfc5a8,
    type: 3}
  m_PrefabInstance: {fileID: 130533739}
  m_PrefabAsset: {fileID: 0}
--- !u!114 &2124851456
MonoBehaviour:
  m_ObjectHideFlags: 0
  m_CorrespondingSourceObject: {fileID: 0}
  m_PrefabInstance: {fileID: 0}
  m_PrefabAsset: {fileID: 0}
  m_GameObject: {fileID: 2124851455}
  m_Enabled: 1
  m_EditorHideFlags: 0
  m_Script: {fileID: 11500000, guid: 56b95f1b9dd584741bc6172529cc3e9b, type: 3}
  m_Name: 
  m_EditorClassIdentifier: 
